<svg id="Layer_x0020_1" xmlns="http://www.w3.org/2000/svg" width="93" height="46.5" viewBox="0 0 93 46.5">
  <g id="MTN_Logo">
    <path id="Path_26" data-name="Path 26" d="M46.5,0C20.819,0,0,10.41,0,23.25S20.819,46.5,46.5,46.5,93,36.09,93,23.25,72.181,0,46.5,0Zm0,42.829c-23.654,0-42.829-8.766-42.829-19.579S22.846,3.67,46.5,3.67,89.329,12.436,89.329,23.25,70.154,42.829,46.5,42.829ZM40.636,19.171V15.5H53.754v3.671H49.031V31H45.359V19.171H40.636ZM69.589,15.5V31h-3.67L59.26,21.773V31H55.59V15.5H59.26l6.658,9.227V15.5ZM23.3,31V15.5h3.671l4.078,6.273L35.129,15.5H38.8V31H35.129V22.233l-2.784,4.28H29.757l-2.784-4.28V31H23.3Z"/>
  </g>
</svg>
